@startuml

'skinparam handwritten true

skinparam monochrome true
skinparam packageStyle rect
skinparam defaultFontName FG Virgil
skinparam shadowing false
skinparam linetype ortho

hide footbox


participant ":Test" as Test
participant ":GetTransactionsOfAccountsWithinPeriodController" as Ctrl
participant "group:Group" as Group
participant "accounts:Accounts" as Accounts
participant "ledger:Ledger" as Ledger

==ACT==

Test -> Ctrl : getTransactionsOfAccountWithinPeriod\n(group, account, initialDateTime,\n finalDateTime)
activate Ctrl
Ctrl -> Group: getTransactionsOfAccountWithinPeriod\n(account, initialDateTime, finalDateTime)
activate Group
Group -> Accounts : hasAccount()
activate Accounts
Group <-- Accounts : b1
deactivate Accounts
opt b1 = true
Group -> Ledger : getTransactionsOfAccountWithinPeriod\n(account, initialDateTime, finalDateTime)
activate Ledger
ref over Ledger : getTransactionsOfAccountWithinPeriod\nfrom Ledger
Group <-- Ledger : result
end
deactivate Ledger
Ctrl <-- Group : result
deactivate Group
Test <-- Ctrl : result
deactivate Ctrl

==ASSERT==

Test -->Test : assertEquals (expected, result)

@enduml