@startuml

skinparam monochrome true
skinparam packageStyle rect
skinparam defaultFontName FG Virgil
skinparam shadowing false
skinparam linetype ortho

class GetTransactionsOfAccountWithinPeriodController{

+ getTransactionsOfGroupAccountWithinPeriodController\n(group : Group, account : Account, \n initialDate : String, finalDate : String)
}

class Group {
- accounts : Accounts
- ledger : Ledger
- categories : Categories
- description : Description
- creationDate : CreationDate

+ getTransactionsOfAccountWithinPeriod\n(account : Account, initialDateTime : String,\n finalDateTime : String)
}

class Accounts {
+ hasAccount(account : Account)
}

class Account {
- denomination : Denomination
- description : Description
}

class Ledger {
+ getTransactionsOfAccountWithinPeriod\n(account : Account,  initialDateTime : String,\n finalDateTime : String)
}

class Transaction {
- amount : Amount
- dateTime : DateTime
- type : Type
- description : Description
- category : Category

+ isBetweenDate(initialDateTime : String,\n finalDateTime : String)
+ hasAccount(account : Account)
}

GetTransactionsOfAccountWithinPeriodController ..> Group : uses
Group --> "1"Accounts : has
Group --> "0..1"Ledger : has
Ledger --> "*" Transaction : registersTransactions
Accounts --> "*" Account : groupsAccounts
Transaction -left-> "1"Account : hasDebitAccount
Transaction -left-> "1"Account : hasCreditAccount

@enduml