@startuml
skinparam monochrome true
skinparam packageStyle rect
skinparam defaultFontName FG Virgil
skinparam shadowing false
skinparam linetype ortho
hide footbox

participant ":Test" as test
participant ":AddGroupCategoryController" as controller
participant ":Group" as grupo
participant "listOfCategories :Categories" as categories
participant "categoryC :Category" as category
participant ":HashSet<Category>" as setcat
participant ":Designation" as designation

==ACT==
test -> controller : addCategory(groupA, "groceries")
activate controller
controller -> grupo: addCategory("groceries")

activate grupo
grupo -> categories : addCategory("groceries")
activate categories
categories -> category *: ("groceries")
activate category
category -> designation *: ("groceries")

category --> categories : result
deactivate category

setcat -> setcat : add(categoryC)
activate setcat
setcat --> categories : result
deactivate setcat
categories --> grupo : result

deactivate categories
grupo --> controller : result
deactivate grupo
controller --> test : result
deactivate controller
==ASSERT==
test -> test : assertTrue

@enduml