@startuml
skinparam defaultFontSize 16

skinparam sequence {
   ArrowColor blue
   LifeLineBorderColor blue
   ParticipantBorderColor blue
   ParticipantBackgroundColor transparent
   ParticipantFontSize 16
   ActorFontColor blue
   ActorFontSize 15
   ActorFontName blue }
hide footbox

autonumber "4-"

participant ":AddMemberToGroupController" as Ctrl
participant "addMemberService\n:AddMemberToGroupService" as serv
participant "personRepo\n:PersonRepository" as PersonRepo
participant "groupRepo\n:GroupRepository" as GroupRepo
participant "group\n:Group" as Group
participant "AddMemberAssembler" as assembler
participant "addMemberResponseDTO\n:AddMemberResponseDTO" as responseDTO
participant "addMemberRequestDTO\n:AddMemberRequestDTO" as reqdto

participant "newMemberID\n:PersonID" as PersonID
participant "groupID\n:GroupID" as GroupID


group SD addMemberToGroup
-> Ctrl : addMemberToGroup (infoDTO)

activate Ctrl

note over reqdto: addMemberRequestDTO(personID: String, groupID: String)

Ctrl -> assembler : mapToRequestDTO: (infoDTO.getPersonID, infoDTO.getGroupID)
activate assembler
assembler -> reqdto* : (personID, groupID)
assembler --> Ctrl : requestDTO
deactivate assembler
Ctrl -> serv : addMember (requestDTO)
activate serv
serv -> PersonID* : addMemberRequestDTO.getNewMemberEmail()
serv -> GroupID* : addMemberRequestDTO.getGroupID()



serv -> serv : personExists = getPersonByID(newMemberID);
ref over serv: getPersonByID

serv -> serv : groupExists = getGroupByID(groupID);
ref over serv: getGroupByID

serv -> Group : addMemberID (newpMemberID)

serv -> GroupRepo : savedGroup = save (group)
ref over GroupRepo: save

serv -> assembler : result = mapToResponseDTO (savedGroup.getID().toStringDTO(), \nsavedGroup.getDescription().getDescriptionValue(),\n addMemberRequestDTO.getNewMemberEmail())
activate assembler
assembler -> responseDTO* : ( )

assembler --> serv : responseDTO
deactivate assembler


serv --> Ctrl : responseDTO

deactivate serv
<-- Ctrl : ResponseEntity \n (membersDTO, \n HttpStatus.OK)
deactivate Ctrl

end

@enduml