@startuml
skinparam defaultFontSize 16

skinparam sequence {
   ArrowColor blue
   LifeLineBorderColor blue
   ParticipantBorderColor blue
   ParticipantBackgroundColor transparent
   ParticipantFontSize 16
   ActorFontColor blue
   ActorFontSize 15
   ActorFontName blue }
hide footbox

autonumber "8-"

group getPersonById
participant ":AddMemberToGroupService" as service
participant "groupRepository\n:GroupRepository" as groupRepo
participant "groupRepository\n:GroupJPARepository" as groupJPARepo
participant "groupOpt\n:Optional<Group>" as groupOpt
participant "group\n:Group" as group

-> service : getGroupById (groupID)
service -> groupRepo : groupOpt = findByGroupId (groupID)

groupRepo -> groupJPARepo: groupOpt = findByGroupId (groupID)


groupJPARepo -> groupOpt*


service -> groupOpt : foundCheck = isPresent ( )

opt foundCheck == true
<-- service  : group : groupOpt.get ( )


end
end
@enduml