@startuml

skinparam defaultFontSize 16

skinparam sequence {
   ArrowColor blue
   LifeLineBorderColor blue
   ParticipantBorderColor blue
   ParticipantBackgroundColor transparent
   ParticipantFontSize 16
   ActorFontColor blue
   ActorFontSize 15
   ActorFontName blue }
hide footbox

autonumber "8-16-"

participant ":GroupRepository" as groupRepo
participant ":GroupJPARepository" as groupjparepo
participant ":GroupDomainDataAssembler" as groupjpaassembler
participant "updatedGroupJPA\n:GroupJpa" as updatedgroupjpa
participant "savedGroupJPA\n:GroupJpa" as savedgroupjpa
participant "savedGroup\n:Group" as savedgroup

group SD save
-> groupRepo : savedGroup = save (group)
groupRepo -> groupjpaassembler : updatedGroupJPA = toData (group)
groupjpaassembler -> updatedgroupjpa *: ( )
groupRepo -> groupjparepo : savedGroupJPA = save (updatedGroupJPA)
groupjparepo -> savedgroupjpa *: ( )
groupRepo -> groupjpaassembler : savedGroup = toDomain (savedGroupJPA)
groupjpaassembler -> savedgroup *: (savedGroupJPA.getID ( ), \n savedGroupJPA.getDescription ( ), \n savedGroupJPA.getCreationDate ( ), \n savedGroupJPA.getCreator ( ), \n savedGroupJPA.getLedgerID ( ))


end

@enduml