
@startuml

skinparam defaultFontSize 16

skinparam sequence {
   ArrowColor blue
   LifeLineBorderColor blue
   ParticipantBorderColor blue
   ParticipantBackgroundColor transparent
   ParticipantFontSize 16
   ActorFontColor blue
   ActorFontSize 15
   ActorFontName blue }

hide footbox

autonumber "2-5-"

participant ":IsFamilyService" as service
participant "memberIDs\n:Set<Person>" as memberIDs
participant "group\n:Group" as group
participant "groupMembers\n:Set<Person>" as members
participant ":PersonRepositoryDB" as personRepo
participant ":PersonRepositoryJPA" as personRepoJpa

group isFamilyService

-> service : isFamily (group)
activate service

service -> group : getMembers (group)
group --> service : memberIDs

service -> group : memberIDs = getMembersIDs ( )
service -> members* : ( )

loop memberID : memberIDs

service -> personRepo : member = findByPersonID (memberID)
personRepo -> personRepoJpa : member = findByPersonID (memberID)
opt member.get() == true
service -> members : add (member)
end
end

service -> members : numberOfMembers = size ( )

service -> service : checkParents = checkIfGroupContainsBothParents (group)

service -> service : numberOfChildren = getNumberOfChildren (group)

service -> service : check = (checkParents == true && \n numberOfMembers == numberOfChildren + 2)

<-- service : check

deactivate service


@enduml