@startuml

skinparam monochrome true
skinparam packageStyle rect
skinparam defaultFontName FG Virgil
skinparam shadowing false
skinparam linetype ortho

class GroupTransactionsWithinPeriodController{
+ getGroupTransactionsWithinPeriod\n(group : Group, initialDate : String,\n finalDate : String)
}

class Group {
- categories : Categories
- accounts : Accounts
- description : Description
- creationDate : CreationDate
- members : HashSet<Person>
- managers : HashSet<Person>
+ getTransactionsWithinPeriod\n(initialDateTime : String,\nfinalDateTime : String)
}

class Ledger {
+ getTransactionsWithinPeriod\n(initialDateTime : String,\nfinalDateTime : String)
}

class Transaction{
- amount : Amount
- dateTime : DateTime
- type : Type
- description : Description
- category : Category
- debitAccount : Account
- creditAccount : Account
+isDateBetween\n(initialDateTime : String,\nfinalDateTime : String)
}

GroupTransactionsWithinPeriodController ..> Group : uses
Group --right> " 0..1  "Ledger :"has"
Ledger --right> "*""Transaction" : registersTransactions

@enduml