<?xml version="1.0" encoding="UTF-8" standalone="no"?>
<svg xmlns="http://www.w3.org/2000/svg" contentScriptType="application/ecmascript" contentStyleType="text/css"
     height="287.875px" preserveAspectRatio="none" style="width:428px;height:287px;" version="1.1" viewBox="0 0 428 287"
     width="428.75px" zoomAndPan="magnify">
    <defs>
        <filter height="300%" id="f1c6la7mi1dc46" width="300%" x="-1" y="-1">
            <feGaussianBlur result="blurOut" stdDeviation="1.75"/>
            <feColorMatrix in="blurOut" result="blurOut2" type="matrix"
                           values="0 0 0 0 0 0 0 0 0 0 0 0 0 0 0 0 0 0 .4 0"/>
            <feOffset dx="3.5" dy="3.5" in="blurOut2" result="blurOut3"/>
            <feBlend in="SourceGraphic" in2="blurOut3" mode="normal"/>
        </filter>
    </defs>
    <g>
        <rect fill="#FFFFFF" filter="url(#f1c6la7mi1dc46)" height="206.2813"
              style="stroke: #0000FF; stroke-width: 0.875;" width="8.75" x="25.375" y="63.2188"/>
        <rect fill="#FFFFFF" filter="url(#f1c6la7mi1dc46)" height="37.7344"
              style="stroke: #0000FF; stroke-width: 0.875;" width="8.75" x="201.25" y="231.7656"/>
        <rect fill="#FFFFFF" filter="url(#f1c6la7mi1dc46)" height="7.875" style="stroke: #0000FF; stroke-width: 0.875;"
              width="8.75" x="377.125" y="261.625"/>
        <rect fill="#FFFFFF" filter="url(#f1c6la7mi1dc46)" height="47.4688"
              style="stroke: #0000FF; stroke-width: 1.3125;" width="62.125" x="348.6875" y="63.2188"/>
        <text fill="#000000" font-family="sans-serif" font-size="14" lengthAdjust="spacingAndGlyphs" textLength="43.75"
              x="357.875" y="83.877">service
        </text>
        <text fill="#000000" font-family="sans-serif" font-size="14" lengthAdjust="spacingAndGlyphs" textLength="49.875"
              x="354.8125" y="101.4863">:Service
        </text>
        <rect fill="#FFFFFF" filter="url(#f1c6la7mi1dc46)" height="29.8594"
              style="stroke: #0000FF; stroke-width: 1.3125;" width="74.375" x="166.6875" y="123.8125"/>
        <text fill="#000000" font-family="sans-serif" font-size="14" lengthAdjust="spacingAndGlyphs" textLength="62.125"
              x="172.8125" y="144.4707">:Controller
        </text>
        <line style="stroke: #0000FF; stroke-width: 0.875; stroke-dasharray: 5.0,5.0;" x1="29.75" x2="29.75"
              y1="54.4688" y2="277.375"/>
        <line style="stroke: #0000FF; stroke-width: 0.875; stroke-dasharray: 5.0,5.0;" x1="205.1875" x2="205.1875"
              y1="154.0547" y2="277.375"/>
        <line style="stroke: #0000FF; stroke-width: 0.875; stroke-dasharray: 5.0,5.0;" x1="381.0625" x2="381.0625"
              y1="102.2656" y2="277.375"/>
        <rect fill="#FFFFFF" filter="url(#f1c6la7mi1dc46)" height="29.8594"
              style="stroke: #0000FF; stroke-width: 1.3125;" width="42" x="7" y="20.2344"/>
        <text fill="#000000" font-family="sans-serif" font-size="14" lengthAdjust="spacingAndGlyphs" textLength="29.75"
              x="13.125" y="40.8926">:Test
        </text>
        <rect fill="#FFFFFF" filter="url(#f1c6la7mi1dc46)" height="206.2813"
              style="stroke: #0000FF; stroke-width: 0.875;" width="8.75" x="25.375" y="63.2188"/>
        <rect fill="#FFFFFF" filter="url(#f1c6la7mi1dc46)" height="37.7344"
              style="stroke: #0000FF; stroke-width: 0.875;" width="8.75" x="201.25" y="231.7656"/>
        <rect fill="#FFFFFF" filter="url(#f1c6la7mi1dc46)" height="7.875" style="stroke: #0000FF; stroke-width: 0.875;"
              width="8.75" x="377.125" y="261.625"/>
        <polygon fill="#0000FF" points="338.1875,100.1875,346.9375,103.6875,338.1875,107.1875,341.6875,103.6875"
                 style="stroke: #0000FF; stroke-width: 0.875;"/>
        <line style="stroke: #0000FF; stroke-width: 0.875;" x1="34.125" x2="343.4375" y1="103.6875" y2="103.6875"/>
        <text fill="#000000" font-family="sans-serif" font-size="14" lengthAdjust="spacingAndGlyphs" textLength="83.125"
              x="40.25" y="81.252">(personRepo,
        </text>
        <text fill="#000000" font-family="sans-serif" font-size="14" lengthAdjust="spacingAndGlyphs" textLength="84.875"
              x="43.75" y="98.8613">accountRepo)
        </text>
        <rect fill="#FFFFFF" filter="url(#f1c6la7mi1dc46)" height="47.4688"
              style="stroke: #0000FF; stroke-width: 1.3125;" width="62.125" x="348.6875" y="63.2188"/>
        <text fill="#000000" font-family="sans-serif" font-size="14" lengthAdjust="spacingAndGlyphs" textLength="43.75"
              x="357.875" y="83.877">service
        </text>
        <text fill="#000000" font-family="sans-serif" font-size="14" lengthAdjust="spacingAndGlyphs" textLength="49.875"
              x="354.8125" y="101.4863">:Service
        </text>
        <polygon fill="#0000FF" points="156.1875,143.1719,164.9375,146.6719,156.1875,150.1719,159.6875,146.6719"
                 style="stroke: #0000FF; stroke-width: 0.875;"/>
        <line style="stroke: #0000FF; stroke-width: 0.875;" x1="34.125" x2="161.4375" y1="146.6719" y2="146.6719"/>
        <text fill="#000000" font-family="sans-serif" font-size="14" lengthAdjust="spacingAndGlyphs" textLength="52.5"
              x="40.25" y="141.8457">(service)
        </text>
        <rect fill="#FFFFFF" filter="url(#f1c6la7mi1dc46)" height="29.8594"
              style="stroke: #0000FF; stroke-width: 1.3125;" width="74.375" x="166.6875" y="123.8125"/>
        <text fill="#000000" font-family="sans-serif" font-size="14" lengthAdjust="spacingAndGlyphs" textLength="62.125"
              x="172.8125" y="144.4707">:Controller
        </text>
        <rect fill="#EEEEEE" filter="url(#f1c6la7mi1dc46)" height="2.625" style="stroke: #EEEEEE; stroke-width: 0.875;"
              width="416.0625" x="2.625" y="186.9766"/>
        <line style="stroke: #000000; stroke-width: 0.875;" x1="2.625" x2="418.6875" y1="186.9766" y2="186.9766"/>
        <line style="stroke: #000000; stroke-width: 0.875;" x1="2.625" x2="418.6875" y1="189.6016" y2="189.6016"/>
        <rect fill="#EEEEEE" filter="url(#f1c6la7mi1dc46)" height="24.6094" style="stroke: #000000; stroke-width: 1.75;"
              width="41.125" x="190.0938" y="175.5469"/>
        <text fill="#000000" font-family="sans-serif" font-size="14" font-weight="bold" lengthAdjust="spacingAndGlyphs"
              textLength="28.875" x="195.3438" y="193.5801">ACT
        </text>
        <polygon fill="#0000FF" points="190.75,228.2656,199.5,231.7656,190.75,235.2656,194.25,231.7656"
                 style="stroke: #0000FF; stroke-width: 0.875;"/>
        <line style="stroke: #0000FF; stroke-width: 0.875;" x1="34.125" x2="196" y1="231.7656" y2="231.7656"/>
        <text fill="#000000" font-family="sans-serif" font-size="14" lengthAdjust="spacingAndGlyphs" textLength="150.5"
              x="40.25" y="226.9395">doSomething (argument)
        </text>
        <polygon fill="#0000FF" points="366.625,258.125,375.375,261.625,366.625,265.125,370.125,261.625"
                 style="stroke: #0000FF; stroke-width: 0.875;"/>
        <line style="stroke: #0000FF; stroke-width: 0.875;" x1="210" x2="371.875" y1="261.625" y2="261.625"/>
        <text fill="#000000" font-family="sans-serif" font-size="14" lengthAdjust="spacingAndGlyphs" textLength="150.5"
              x="216.125" y="256.7988">doSomething (argument)
        </text><!--MD5=[c40af0aa8bdefc6022ec7f7b72722b40]
@startuml
skinparam defaultFontSize 16
skinparam sequence {
   ArrowColor blue
   LifeLineBorderColor blue
   ParticipantBorderColor blue
   ParticipantBackgroundColor transparent
   ParticipantFontSize 16
   ActorFontColor blue
   ActorFontSize 15
   ActorFontName blue }
hide footbox

participant ":Test" as test
participant  ":Controller" as controller
participant "service\n:Service" as service


activate test

test -> service * : (personRepo,\n accountRepo)

test -> controller * : (service)

==ACT==

test -> controller : doSomething (argument)

activate controller

controller -> service : doSomething (argument)

activate service

@enduml

PlantUML version 1.2019.11(Sun Sep 22 11:02:15 BST 2019)
(GPL source distribution)
Java Runtime: OpenJDK Runtime Environment
JVM: OpenJDK 64-Bit Server VM
Java Version: 11.0.4+10-b520.11
Operating System: Windows 10
Default Encoding: Cp1252
Language: pt
Country: PT
-->
    </g>
</svg>