
@startuml

skinparam defaultFontSize 16

skinparam sequence {
   ArrowColor blue
   LifeLineBorderColor blue
   ParticipantBorderColor blue
   ParticipantBackgroundColor transparent
   ParticipantFontSize 16
   ActorFontColor blue
   ActorFontSize 15
   ActorFontName blue }

hide footbox

autonumber

title **US4 - As a system manager, I want to know which groups are family - Sequence Diagram** \n

participant ":Test" as Test
participant ":GetFamilyGroupsController" as Controller
participant ":GetFamilyGroupsService" as Service
participant "groupRepo\n:GroupRepository" as GroupRepo
participant "familyGroups:\nSet<Group>" as FamilyGroups
participant "GetFamilyGroupsAssembler\n:GetFamilyGroupsAssembler" as Assembler
participant "familyGroupsDTO\n:GroupsDTO" as familyGroupsDTO

participant "group\n:Group" as Group
participant "groups\n:Set<Group>" as Groups
participant "personRepo\n:PersonRepository" as PersonRepo

activate Test

create Controller
Test -> Controller : (personRepo, \n groupRepo)

create Service
Controller -> Service : (personRepo, \n groupRepo)

==ACT==

Test -> Controller : getFamilyGroups ( )

activate Controller
Controller -> Service : getFamilyGroups ( )

activate Service
Service -> GroupRepo : groups = findAll ( )
Service -> FamilyGroups* : ( )

loop group : groups
Service -> Service : check = isFamily (group)
ref over Service: isFamily
opt check == true
Service -> FamilyGroups : add (group)
end
end

Service -> Assembler : createDTOFromDomainObject (familyGroups)
Assembler -> familyGroupsDTO* : ( )
Assembler --> Service : familyGroupsDTO
Service --> Controller : familyGroupsDTO

deactivate Service

Controller --> Test : familyGroupsDTO

deactivate Controller

==ASSERT==

Test -> Test : assertEquals (expected, familyGroupsDTO)

@enduml