<?xml version="1.0" encoding="UTF-8"?>
<!DOCTYPE svg PUBLIC "-//W3C//DTD SVG 1.1//EN" "http://www.w3.org/Graphics/SVG/1.1/DTD/svg11.dtd">
<svg xmlns="http://www.w3.org/2000/svg" xmlns:xlink="http://www.w3.org/1999/xlink" version="1.1" width="741px" height="422px" viewBox="-0.5 -0.5 741 422"
     style="background-color: rgb(255, 255, 255);"><defs><clipPath id="mx-clip-119-137-92-56-0"><rect x="119" y="137" width="92" height="56"/></clipPath><clipPath id="mx-clip-109-270-112-56-0"><rect x="109" y="270" width="112" height="56"/></clipPath><clipPath id="mx-clip-495-219-172-56-0"><rect x="495" y="219" width="172" height="56"/></clipPath><clipPath id="mx-clip-550-159-62-30-0"><rect x="550" y="159" width="62" height="30"/></clipPath><clipPath id="mx-clip-134-80-62-30-0"><rect x="134" y="80" width="62" height="30"/></clipPath><clipPath id="mx-clip-314-189-62-30-0"><rect x="314" y="189" width="62" height="30"/></clipPath><clipPath id="mx-clip-600-35-112-34-0"><rect x="600" y="35" width="112" height="34"/></clipPath></defs><g><rect x="0" y="0" width="740" height="420" fill="#ffffff" stroke="none" pointer-events="all"/><path d="M 280 221.5 L 424.38 221.5" fill="none" stroke="#000000" stroke-miterlimit="10" pointer-events="stroke"/><path d="M 30 50 L 260 50 L 280 70 L 280 393 L 50 393 L 30 373 L 30 50 Z" fill="#dae8fc" stroke="#6c8ebf" stroke-miterlimit="10" pointer-events="all"/><path d="M 30 50 L 260 50 L 280 70 L 50 70 Z" fill-opacity="0.05" fill="#000000" stroke="none" pointer-events="all"/><path d="M 30 50 L 50 70 L 50 393 L 30 373 Z" fill-opacity="0.1" fill="#000000" stroke="none" pointer-events="all"/><path d="M 50 393 L 50 70 L 30 50 M 50 70 L 280 70" fill="none" stroke="#6c8ebf" stroke-miterlimit="10" pointer-events="all"/><path d="M 424.38 129 L 695.63 129 L 715.63 149 L 715.63 334 L 444.38 334 L 424.38 314 L 424.38 129 Z" fill="#dae8fc" stroke="#6c8ebf" stroke-miterlimit="10" pointer-events="all"/><path d="M 424.38 129 L 695.63 129 L 715.63 149 L 444.38 149 Z" fill-opacity="0.05" fill="#000000" stroke="none" pointer-events="all"/><path d="M 424.38 129 L 444.38 149 L 444.38 334 L 424.38 314 Z" fill-opacity="0.1" fill="#000000" stroke="none" pointer-events="all"/><path d="M 444.38 334 L 444.38 149 L 424.38 129 M 444.38 149 L 715.63 149" fill="none" stroke="#6c8ebf" stroke-miterlimit="10" pointer-events="all"/><rect x="75" y="120" width="180" height="90" fill="#b1ddf0" stroke="#10739e" pointer-events="all"/><path d="M 232 127 L 248 127 L 248 147 L 232 147 L 232 143 L 228 143 L 228 139 L 232 139 L 232 135 L 228 135 L 228 131 L 232 131 Z" fill="#ffffff" stroke="#000000" stroke-miterlimit="10" pointer-events="all"/><path d="M 232 131 L 236 131 L 236 135 L 232 135 M 232 139 L 236 139 L 236 143 L 232 143" fill="none" stroke="#000000" stroke-miterlimit="10" pointer-events="all"/><rect x="115" y="137" width="100" height="56" fill="none" stroke="none" pointer-events="all"/><g fill="#000000" font-family="Helvetica" font-weight="bold" clip-path="url(#mx-clip-119-137-92-56-0)" text-anchor="middle" font-size="12px"><text x="164.5" y="155.5">&lt;&lt;component&gt;&gt;</text><text x="164.5" y="169.5">HTTP Client</text><text x="164.5" y="183.5">(Postman)</text></g><rect x="75" y="253" width="180" height="90" fill="#b1ddf0" stroke="#10739e" pointer-events="all"/><path d="M 232 260 L 248 260 L 248 280 L 232 280 L 232 276 L 228 276 L 228 272 L 232 272 L 232 268 L 228 268 L 228 264 L 232 264 Z" fill="#ffffff" stroke="#000000" stroke-miterlimit="10" pointer-events="all"/><path d="M 232 264 L 236 264 L 236 268 L 232 268 M 232 272 L 236 272 L 236 276 L 232 276" fill="none" stroke="#000000" stroke-miterlimit="10" pointer-events="all"/><rect x="105" y="270" width="120" height="56" fill="none" stroke="none" pointer-events="all"/><g fill="#000000" font-family="Helvetica" font-weight="bold" clip-path="url(#mx-clip-109-270-112-56-0)" text-anchor="middle" font-size="12px"><text x="164.5" y="295.5">&lt;&lt;component&gt;&gt;</text><text x="164.5" y="309.5">Teste de Integração</text></g><rect x="470.63" y="202" width="220" height="90" fill="#b1ddf0" stroke="#10739e" pointer-events="all"/><path d="M 667.63 209 L 683.63 209 L 683.63 229 L 667.63 229 L 667.63 225 L 663.63 225 L 663.63 221 L 667.63 221 L 667.63 217 L 663.63 217 L 663.63 213 L 667.63 213 Z" fill="#ffffff" stroke="#000000" stroke-miterlimit="10" pointer-events="all"/><path d="M 667.63 213 L 671.63 213 L 671.63 217 L 667.63 217 M 667.63 221 L 671.63 221 L 671.63 225 L 667.63 225" fill="none" stroke="#000000" stroke-miterlimit="10" pointer-events="all"/><rect x="490.63" y="219" width="180" height="56" fill="none" stroke="none" pointer-events="all"/><g fill="#000000" font-family="Helvetica" font-weight="bold" clip-path="url(#mx-clip-495-219-172-56-0)" text-anchor="middle" font-size="12px"><text x="580.13" y="244.5">&lt;&lt;component&gt;&gt;</text><text x="580.13" y="258.5">Gestão de Finanças Pessoais</text></g><rect x="545.63" y="159" width="70" height="30" fill="none" stroke="none" pointer-events="all"/><g fill="#000000" font-family="Helvetica" font-weight="bold" clip-path="url(#mx-clip-550-159-62-30-0)" text-anchor="middle" font-size="12px"><text x="580.13" y="178.5">Servidor</text></g><rect x="130" y="80" width="70" height="30" fill="none" stroke="none" pointer-events="all"/><g fill="#000000" font-family="Helvetica" font-weight="bold" clip-path="url(#mx-clip-134-80-62-30-0)" text-anchor="middle" font-size="12px"><text x="164.5" y="99.5">Cliente</text></g><rect x="310" y="189" width="70" height="30" fill="none" stroke="none" pointer-events="all"/><g fill="#000000" font-family="Helvetica" font-weight="bold" clip-path="url(#mx-clip-314-189-62-30-0)" text-anchor="middle" font-size="12px"><text x="344.5" y="208.5">http</text></g><path d="M 615.63 20 L 715.63 20 L 715.63 80 L 595.63 80 L 595.63 40 Z" fill="#eeeeee" stroke="#36393d" stroke-miterlimit="10" pointer-events="all"/><rect x="595.63" y="35" width="120" height="34" fill="none" stroke="none" pointer-events="all"/><g fill="#000000" font-family="Helvetica" font-weight="bold" clip-path="url(#mx-clip-600-35-112-34-0)" text-anchor="middle" font-size="12px"><text x="655.13" y="49.5">Implementation </text><text x="655.13" y="63.5">view, Level 2</text></g></g></svg>